{"total":48,"per_page":10,"current_page":1,"last_page":5,"next_page_url":"http:\/\/technicaltest.vme.co\/\/api\/products?page=2","prev_page_url":null,"from":1,"to":10,"data":[{"id":28,"created_at":"2017-02-26 12:14:10","updated_at":"2017-02-26 12:14:10","name":"Jaguar F-type","description":"From its seductively long hood to its steeply raked windshield and wide rear haunches, the F-type is a stunner. Offered as both a coupe and a convertible, it gets a snarling 3.0-liter supercharged V-6 pumping out 340 hp to the rear wheels through a six-speed manual or eight-speed automatic","price":62000},{"id":30,"created_at":"2017-02-26 12:18:40","updated_at":"2017-02-26 12:18:40","name":"Chevrolet Corvette Z06","description":"Think of the Corvette Z06 as the most amazing version of a sports car that is already amazing by anyone\u2019s measure. Sold as either a coupe or convertible, the most important feature is its supercharged 6.2-liter V-8 that makes 650 hp and 650 lb-ft.","price":80000},{"id":31,"created_at":"2017-02-26 12:19:57","updated_at":"2017-02-26 12:19:57","name":"Mercedes AMG GT C Roadster","description":"Convertibles are cars built to be seen in, and this one is no exception\u2014but in these roadsters, performance is the real point. A 4.0-liter twin-turbo V-8 pairs with a seven-speed automatic, making 469 horsepower in the GT model.","price":90000},{"id":32,"created_at":"2017-02-26 12:22:50","updated_at":"2017-02-26 12:22:50","name":"Dodge Charger SRT Hellcat","description":"SRT is Mopar-speak for \u201cGive it a really big engine,\u201d and the Charger SRT and SRT Hellcat got the memo. The Charger SRT boasts a 485-hp 6.4-liter Hemi V-8 and an adaptive suspension with auto, sport, and track modes. The engine is awesome, but the ride quality is harsh in any of the three settings and the steering lacks feedback.","price":52000},{"id":33,"created_at":"2017-02-26 15:41:02","updated_at":"2017-02-26 15:41:02","name":"Ford Mustang Shelby GT350R","description":"Ford\u2019s pony car on steroids, the Shelby GT350, is more than just a quarter-mile monster. Yes, the 5.2-liter V-8 can hustle it down the straight at a brain-melting pace.","price":56000},{"id":34,"created_at":"2017-02-26 15:41:52","updated_at":"2017-02-26 15:41:52","name":"Subaru BRZ","description":"Don\u2019t let the boy-racer vibe deter you: The BRZ is perfect for purists on a budget. An updated 205-hp version of the 2.0-liter flat-four pairs to a six-speed manual, hardly answering complaints that the rear-drive sports car lacks punch.","price":26000},{"id":35,"created_at":"2017-02-26 15:42:34","updated_at":"2017-02-26 15:42:34","name":"Mazda Mx5 Miata","description":"For pure driving bliss, the Miata is tops in our book\u2014it\u2019s so good, it\u2019s a 10Best winner for 2017. This legendary two-seater has a 155-hp 2.0-liter four-cylinder with a six-speed manual; a six-speed automatic is optional.","price":26000},{"id":36,"created_at":"2017-02-26 15:43:08","updated_at":"2017-02-26 15:43:08","name":"Lamborghini Huracan","description":"Nothing on Earth can prepare you for the eyeball-melting performance of Lamborghini\u2019s \u201centry-level\u201d supercar, the Hurac\u00e1n. The angular design is severe yet elegant; the stealth fighter\u2013like cockpit is as luxurious as it is intense.","price":203000},{"id":37,"created_at":"2017-02-26 15:43:39","updated_at":"2017-02-26 15:43:39","name":"Aston Martin Vanquish","description":"Aston Martin calls the Vanquish a \u201csuper grand touring\u201d machine, not a super sports car, but it\u2019s so beautiful that we don\u2019t care what Aston calls it. Yes, its sonorous V-12 makes it fast, but many rivals easily out-accelerate it.","price":260000},{"id":38,"created_at":"2017-02-26 15:44:28","updated_at":"2017-03-16 08:56:12","name":"Porsche 911 GT3 RS - edited","description":"Flaunting a huge rear wing, giant air intakes, and fender-filling wheels and tires, there\u2019s no mistaking the GT3 RS for anything but the track-ready racer it is. Luckily, neutral handling makes the RS less terrifying than it looks.","price":100}]}